$ brew config 2>&1 | tee -a "$LOCAL_PATH_TO_THIS_LOG_FILE"
HOMEBREW_VERSION: 1.4.3
ORIGIN: https://github.com/Homebrew/brew.git
HEAD: 987805d3dcd4c8dbc70127399d4ea7aee8e98c21
Last commit: 3 days ago
Core tap ORIGIN: https://github.com/Homebrew/homebrew-core
Core tap HEAD: 5c3339abd141f5f290ee816e5669d0d71c7f9827
Core tap last commit: 3 hours ago
HOMEBREW_PREFIX: /usr/local
HOMEBREW_CASK_OPTS: --appdir=/Applications --prefpanedir=/Library/PreferencePanes --colorpickerdir=/Library/ColorPickers --dictionarydir=/Library/Dictionaries --servicedir=/Library/Services --qlplugindir=/Library/QuickLook --fontdir=/Library/Fonts --input_methoddir=/Library/Input\ Methods --screen_saverdir=/Library/Screen\ Savers --internet_plugindir=/Library/Internet\ Plug\-Ins
HOMEBREW_DEV_CMD_RUN: 1
HOMEBREW_FORCE_BREWED_CURL: 1
HOMEBREW_GITHUB_API_TOKEN: set
HOMEBREW_NO_AUTO_UPDATE: 1
HOMEBREW_UPDATE_TO_TAG: 1
CPU: dual-core 64-bit core2
Homebrew Ruby: 2.3.3 => /usr/local/Homebrew/Library/Homebrew/vendor/portable-ruby/2.3.3/bin/ruby
Clang: 8.0 build 800
Git: 2.15.1 => /usr/local/bin/git
Curl: 7.57.0 => /usr/local/opt/curl/bin/curl
Perl: /usr/local/bin/perl => /usr/local/Cellar/perl/5.26.1/bin/perl
Python: /usr/local/opt/python/libexec/bin/python => /usr/local/Cellar/python/2.7.14_2/Frameworks/Python.framework/Versions/2.7/bin/python2.7
Ruby: /usr/local/bin/ruby => /usr/local/Cellar/ruby/2.5.0/bin/ruby
Java: 9.0.1
macOS: 10.11.6-x86_64
Xcode: 8.2.1
CLT: 8.2.0.0.1.1480973914
X11: 2.7.11 => /opt/X11
