$ HOMEBREW_BUILD_FROM_SOURCE=1 script -aq >("$rm_ANSI_ctrl_seqs_pl" >>"$LOCAL_PATH_TO_THIS_LOG_FILE") brew upgrade -vd --build-from-source mysql # Using the options with which MySQL was initially installed from its package tab where `$rm_ANSI_ctrl_seqs_pl` is the file path to a local copy of <https://raw.githubusercontent.com/RandomDSdevel/PLibUDTU/master/rm_ANSI_ctrl_seqs.pl>.  
/usr/local/Homebrew/Library/Homebrew/brew.rb (Formulary::FormulaLoader): loading /usr/local/Homebrew/Library/Taps/homebrew/homebrew-core/Formula/mysql.rb
==> Upgrading 1 outdated package, with result:
mysql 5.7.22 -> 8.0.11
/usr/local/Homebrew/Library/Homebrew/brew.rb (Formulary::FormulaLoader): loading /usr/local/Homebrew/Library/Taps/homebrew/homebrew-core/Formula/cmake.rb
/usr/local/Homebrew/Library/Homebrew/brew.rb (Formulary::FormulaLoader): loading /usr/local/Homebrew/Library/Taps/homebrew/homebrew-core/Formula/sphinx-doc.rb
/usr/local/Homebrew/Library/Homebrew/brew.rb (Formulary::FormulaLoader): loading /usr/local/Homebrew/Library/Taps/homebrew/homebrew-core/Formula/openssl.rb
/usr/local/Homebrew/Library/Homebrew/brew.rb (Formulary::FormulaLoader): loading /usr/local/Homebrew/Library/Taps/homebrew/homebrew-core/Formula/makedepend.rb
/usr/local/Homebrew/Library/Homebrew/brew.rb (Formulary::FormulaLoader): loading /usr/local/Homebrew/Library/Taps/homebrew/homebrew-core/Formula/pkg-config.rb
mysql: macOS Sierra or newer is required.
Error: mysql: An unsatisfied requirement failed this build.
